Project Gutenberg
…
             Jahin Kim 

What is Project Gutenberg?

Project Gutenberg is the oldest digital library, founded in 1971 by Michael Hart to digitize and archive cultural works, particularly public-domain books, to encourage eBook creation and distribution. It is a volunteer-driven nonprofit organization offering over 75,000 free eBooks in various formats, available for download or online reading. The collection focuses on older works whose U.S. copyright has expired, and the project’s mission is to make literature freely accessible to everyone.

How to use gutenbergr

You can visit gutenberg.org to find out the author ID or the gutenberg id for a specific title.

library(gutenbergr)

gutenberg_works()

# A tibble: 61,693 × 8
   gutenberg_id title    author gutenberg_author_id language gutenberg_bookshelf
          <int> <chr>    <chr>                <int> <fct>    <chr>              
 1            1 "The De… Jeffe…                1638 en       Politics/American …
 2            2 "The Un… Unite…                   1 en       Politics/American …
 3            3 "John F… Kenne…                1666 en       Browsing: History …
 4            4 "Lincol… Linco…                   3 en       US Civil War/Brows…
 5            5 "The Un… Unite…                   1 en       United States/Poli…
 6            6 "Give M… Henry…                   4 en       American Revolutio…
 7            7 "The Ma… <NA>                    NA en       Browsing: History …
 8            8 "Abraha… Linco…                   3 en       US Civil War/Brows…
 9            9 "Abraha… Linco…                   3 en       US Civil War/Brows…
10           10 "The Ki… <NA>                    NA en       Banned Books List …
# ℹ 61,683 more rows
# ℹ 2 more variables: rights <fct>, has_text <lgl>
…
